Mock Community
…
# Convert to dataframe for plotting or summary
df.abund <- psmelt(ps.genus.rel)

# Get the abundance table
genus_abundance <- df.abund %>%
  group_by(Genus) %>%
  summarise(total_abundance = sum(Abundance)) %>%
  ungroup() %>%
  mutate(percent_abundance = (total_abundance / sum(total_abundance)) * 100) %>%
  arrange(desc(total_abundance))

genus_abundance

## # A tibble: 101 × 3
##    Genus                       total_abundance percent_abundance
##    <chr>                                 <dbl>             <dbl>
##  1 Unassigned                           0.659              22.0 
##  2 Faecalibacterium                     0.317              10.6 
##  3 Blautia                              0.310              10.3 
##  4 Subdoligranulum                      0.133               4.43
##  5 Ruminococcus                         0.123               4.11
##  6 Bacteroides                          0.114               3.79
##  7 Parabacteroides                      0.103               3.45
##  8 Fusicatenibacter                     0.0934              3.11
##  9 [Eubacterium] siraeum group          0.0811              2.70
## 10 Agathobacter                         0.0788              2.63
## # ℹ 91 more rows
…
